…
<br>
<br>

## **Cumulative Cases**
### Which countries had the most cumulative cases?
<font size="3" color="blue">This shows the data from the most recent data collection date: 02-11-2021..</font>

```r
covid %>% 
  filter(date_reported == "2021-02-11") %>% 
  arrange(desc(cumulative_cases))
```

```
## # A tibble: 237 x 8
##    date_reported country_code country      who_region new_cases cumulative_cases
##    <date>        <chr>        <chr>        <chr>          <dbl>            <dbl>
##  1 2021-02-11    US           United Stat… AMRO           90930         26923756
##  2 2021-02-11    IN           India        SEARO          12923         10871294
##  3 2021-02-11    BR           Brazil       AMRO           51486          9599565
##  4 2021-02-11    RU           Russian Fed… EURO           15038          4027748
##  5 2021-02-11    GB           The United … EURO           13013          3985165
##  6 2021-02-11    FR           France       EURO           24631          3328987
##  7 2021-02-11    ES           Spain        EURO            8298          3023601
##  8 2021-02-11    IT           Italy        EURO           12947          2668266
##  9 2021-02-11    TR           Turkey       EURO            8642          2556837
## 10 2021-02-11    DE           Germany      EURO           10237          2310233
## # … with 227 more rows, and 2 more variables: new_deaths <dbl>,
## #   cumulative_deaths <dbl>
```
…
<font size="3" color="blue">We did this by subtracting the amount of cases on 11-11-2020 from the amount of cases on 2-11-2021. This data is for the last 3 months.</font>

```r
covid%>%
  group_by(country)%>%
  filter(cumulative_cases > 1000)%>%
  filter(date_reported == "2020-11-11" | date_reported == "2021-2-11")%>%
  arrange(date_reported)%>%
  mutate(inc_rate =(cumulative_cases - lag(cumulative_cases)) / lag(cumulative_cases))%>%
  arrange(desc(inc_rate))
```

```
## # A tibble: 356 x 9
## # Groups:   country [186]
##    date_reported country_code country   who_region new_cases cumulative_cases
##    <date>        <chr>        <chr>     <chr>          <dbl>            <dbl>
##  1 2021-02-11    UY           Uruguay   AMRO             503            46153
##  2 2021-02-11    LV           Latvia    EURO             990            73859
##  3 2021-02-11    EE           Estonia   EURO             675            50280
##  4 2021-02-11    LT           Lithuania EURO            1067           189058
##  5 2021-02-11    TH           Thailand  SEARO            201            24104
##  6 2021-02-11    RS           Serbia    EURO            2088           413943
##  7 2021-02-11    MY           Malaysia  WPRO            3288           251604
##  8 2021-02-11    CY           Cyprus    EURO             113            32072
##  9 2021-02-11    LS           Lesotho   AFRO              86             9804
## 10 2021-02-11    LK           Sri Lanka SEARO            963            72174
## # … with 346 more rows, and 3 more variables: new_deaths <dbl>,
## #   cumulative_deaths <dbl>, inc_rate <dbl>
```
…
<br>
<br>

## **Cumulative Deaths**
### Which countries had the most deaths?

```r
covid %>% 
  filter(date_reported== "2021-02-11") %>% 
  arrange(desc(cumulative_deaths))
```

```
## # A tibble: 237 x 8
##    date_reported country_code country      who_region new_cases cumulative_cases
##    <date>        <chr>        <chr>        <chr>          <dbl>            <dbl>
##  1 2021-02-11    US           United Stat… AMRO           90930         26923756
##  2 2021-02-11    BR           Brazil       AMRO           51486          9599565
##  3 2021-02-11    MX           Mexico       AMRO           10738          1946751
##  4 2021-02-11    IN           India        SEARO          12923         10871294
##  5 2021-02-11    GB           The United … EURO           13013          3985165
##  6 2021-02-11    IT           Italy        EURO           12947          2668266
##  7 2021-02-11    FR           France       EURO           24631          3328987
##  8 2021-02-11    RU           Russian Fed… EURO           15038          4027748
##  9 2021-02-11    ES           Spain        EURO            8298          3023601
## 10 2021-02-11    DE           Germany      EURO           10237          2310233
## # … with 227 more rows, and 2 more variables: new_deaths <dbl>,
## #   cumulative_deaths <dbl>
```
…
## **New Cases**
### Countries with the highest amount of new cases
<font size="3" color="blue">This is data that was reported on 02-11-2021.</font> 

```r
covid%>%
  select(date_reported, country, new_cases)%>%
  filter(date_reported=="2021-02-11")%>%
arrange(desc(new_cases))
```

```
## # A tibble: 237 x 3
##    date_reported country                  new_cases
##    <date>        <chr>                        <dbl>
##  1 2021-02-11    United States of America     90930
##  2 2021-02-11    Brazil                       51486
##  3 2021-02-11    France                       24631
##  4 2021-02-11    Russian Federation           15038
##  5 2021-02-11    The United Kingdom           13013
##  6 2021-02-11    Italy                        12947
##  7 2021-02-11    India                        12923
##  8 2021-02-11    Mexico                       10738
##  9 2021-02-11    Germany                      10237
## 10 2021-02-11    Czechia                       9537
## # … with 227 more rows
```
…
<br>
<br>

### Countries with the highest amount of new deaths


```r
covid%>%
  select(date_reported, country, new_deaths)%>%
  filter(date_reported=="2021-02-11")%>%
arrange(desc(new_deaths))
```

```
## # A tibble: 237 x 3
##    date_reported country                  new_deaths
##    <date>        <chr>                         <dbl>
##  1 2021-02-11    United States of America       2802
##  2 2021-02-11    Mexico                         1701
##  3 2021-02-11    Brazil                         1350
##  4 2021-02-11    The United Kingdom             1001
##  5 2021-02-11    Germany                         666
##  6 2021-02-11    Russian Federation              553
##  7 2021-02-11    Poland                          456
##  8 2021-02-11    Italy                           336
##  9 2021-02-11    France                          295
## 10 2021-02-11    South Africa                    276
## # … with 227 more rows
```
…
