Our Data Analysis
…
Cumulative cases on 2021-02-11

covid %>% 
  filter(date_reported == "2021-02-11") %>% 
  arrange(desc(cumulative_cases))

## # A tibble: 237 x 8
##    date_reported country_code country      who_region new_cases cumulative_cases
##    <date>        <chr>        <chr>        <chr>          <dbl>            <dbl>
##  1 2021-02-11    US           United Stat~ AMRO           90930         26923756
##  2 2021-02-11    IN           India        SEARO          12923         10871294
##  3 2021-02-11    BR           Brazil       AMRO           51486          9599565
##  4 2021-02-11    RU           Russian Fed~ EURO           15038          4027748
##  5 2021-02-11    GB           The United ~ EURO           13013          3985165
##  6 2021-02-11    FR           France       EURO           24631          3328987
##  7 2021-02-11    ES           Spain        EURO            8298          3023601
##  8 2021-02-11    IT           Italy        EURO           12947          2668266
##  9 2021-02-11    TR           Turkey       EURO            8642          2556837
## 10 2021-02-11    DE           Germany      EURO           10237          2310233
## # ... with 227 more rows, and 2 more variables: new_deaths <dbl>,
## #   cumulative_deaths <dbl>
…
